{
  "profiles": {
    "client": [
      "applications.create",
      "applications.view_own",
      "applications.update_own",
      "applications.remove_own",
      "users.view"
    ]
  },
  "applications": {
    "applications": [
      "create",
      "view",
      "view_own",
      "update",
      "update_own",
      "remove",
      "remove_own"
    ],
    "users": [
      "view",
      "view_own",
      "update",
      "update_own"
    ]
  }
}
